<?xml version="1.0" encoding="utf-8"?>
<!-- Generator: Adobe Illustrator 18.1.1, SVG Export Plug-In . SVG Version: 6.00 Build 0)  -->
<svg version="1.1" id="Layer_1" xmlns="http://www.w3.org/2000/svg" xmlns:xlink="http://www.w3.org/1999/xlink" x="0px" y="0px"
	 viewBox="0 0 42.5 18.3" enable-background="new 0 0 42.5 18.3" xml:space="preserve">
<g>
	<rect x="12.1" y="0" fill="#919191" width="18.3" height="18.3"/>
	<g>
		<path fill="#919191" d="M0,9.2c0-0.6,0.3-1,0.8-1.3l7.2-4.7C8.1,3,8.2,3,8.4,3c0.4,0,0.8,0.2,1.1,0.5C9.8,3.8,10,4.2,10,4.7
			c0,0.4-0.1,0.7-0.4,0.9L4.2,9.2l5.4,3.5c0.3,0.2,0.4,0.5,0.4,0.9c0,0.5-0.2,0.9-0.5,1.2c-0.3,0.3-0.7,0.5-1.1,0.5
			c-0.2,0-0.4,0-0.5-0.1l-7.2-4.7C0.3,10.2,0,9.7,0,9.2z"/>
		<path fill="#919191" d="M32.5,13.6c0-0.4,0.1-0.7,0.4-0.9l5.4-3.5L33,5.6c-0.3-0.2-0.4-0.5-0.4-0.9c0-0.5,0.2-0.9,0.5-1.2
			S33.7,3,34.1,3c0.2,0,0.4,0,0.4,0.1l7.2,4.7c0.5,0.3,0.7,0.7,0.7,1.3c0,0.6-0.2,1-0.7,1.3l-7.2,4.7c-0.1,0.1-0.2,0.1-0.4,0.1
			c-0.4,0-0.8-0.2-1.1-0.5C32.7,14.5,32.5,14.1,32.5,13.6z"/>
	</g>
</g>
</svg>
