<?xml version="1.0" encoding="utf-8"?>
<!-- Generator: Adobe Illustrator 18.1.1, SVG Export Plug-In . SVG Version: 6.00 Build 0)  -->
<svg version="1.1" id="Layer_1" xmlns="http://www.w3.org/2000/svg" xmlns:xlink="http://www.w3.org/1999/xlink" x="0px" y="0px"
	 viewBox="0 0 142 31" enable-background="new 0 0 142 31" xml:space="preserve">
<g>
	<g>
		<path fill="#CECCCC" d="M141,28c0,1.7-1.3,3-3,3H3c-1.7,0-3-1.3-3-3V4c0-1.7,1.3-3,3-3h135c1.7,0,3,1.3,3,3V28z"/>
	</g>
	<path fill="#919191" d="M138.5,31H3.5C1.6,31,0,29.4,0,27.5v-24C0,1.6,1.6,0,3.5,0h135c1.9,0,3.5,1.6,3.5,3.5v24
		C142,29.4,140.4,31,138.5,31z M3.5,1C2.1,1,1,2.1,1,3.5v24C1,28.9,2.1,30,3.5,30h135c1.4,0,2.5-1.1,2.5-2.5v-24
		c0-1.4-1.1-2.5-2.5-2.5H3.5z"/>
</g>
<g enable-background="new    ">
	<path fill="#535353" d="M46.4,19.7v-9.4c0-0.1,0-0.2,0.1-0.3c0.1-0.1,0.2-0.1,0.3-0.1h2.6c0.9,0,1.7,0.2,2.3,0.7s0.9,1.2,0.9,2.1
		c0,1.5-0.7,2.4-2.1,2.7l2.1,3.9c0,0.1,0.1,0.1,0.1,0.2c0,0.1-0.1,0.3-0.2,0.4s-0.3,0.2-0.5,0.2c-0.2,0-0.4-0.2-0.5-0.5l-2.1-4.1
		h-1.6v4.1c0,0.1-0.1,0.2-0.2,0.3c-0.1,0.1-0.3,0.1-0.4,0.1s-0.3,0-0.4-0.1C46.4,20,46.4,19.9,46.4,19.7z M47.6,14.6h1.8
		c1.3,0,1.9-0.6,1.9-1.8c0-1.2-0.6-1.8-1.9-1.8h-1.8V14.6z"/>
	<path fill="#535353" d="M54,19.7v-9.4c0-0.1,0.1-0.2,0.2-0.3c0.1-0.1,0.2-0.1,0.4-0.1h5c0.1,0,0.2,0.1,0.3,0.2s0.1,0.2,0.1,0.4
		c0,0.1,0,0.3-0.1,0.4c-0.1,0.1-0.2,0.2-0.3,0.2h-4.3v3.6h2.2c0.1,0,0.2,0,0.3,0.1c0.1,0.1,0.1,0.2,0.1,0.4c0,0.1,0,0.2-0.1,0.3
		c-0.1,0.1-0.2,0.1-0.3,0.1h-2.2v3.6h4.3c0.1,0,0.2,0.1,0.3,0.2c0.1,0.1,0.1,0.2,0.1,0.4c0,0.1,0,0.3-0.1,0.4
		c-0.1,0.1-0.2,0.2-0.3,0.2h-5c-0.1,0-0.3,0-0.4-0.1C54,20,54,19.9,54,19.7z"/>
	<path fill="#535353" d="M60.4,10.4c0-0.1,0-0.3,0.1-0.4s0.2-0.2,0.3-0.2h5.7c0.1,0,0.2,0.1,0.3,0.2s0.1,0.2,0.1,0.4
		c0,0.1,0,0.3-0.1,0.4c-0.1,0.1-0.2,0.2-0.3,0.2h-2.3v8.7c0,0.1-0.1,0.2-0.2,0.3s-0.3,0.1-0.4,0.1s-0.3,0-0.4-0.1s-0.2-0.2-0.2-0.3
		V11h-2.3c-0.1,0-0.2-0.1-0.3-0.2S60.4,10.6,60.4,10.4z"/>
	<path fill="#535353" d="M68.1,19.7v-9.4c0-0.1,0-0.2,0.1-0.3c0.1-0.1,0.2-0.1,0.3-0.1h2.6c0.9,0,1.7,0.2,2.3,0.7s0.9,1.2,0.9,2.1
		c0,1.5-0.7,2.4-2.1,2.7l2.1,3.9c0,0.1,0.1,0.1,0.1,0.2c0,0.1-0.1,0.3-0.2,0.4s-0.3,0.2-0.5,0.2c-0.2,0-0.4-0.2-0.5-0.5l-2.1-4.1
		h-1.6v4.1c0,0.1-0.1,0.2-0.2,0.3c-0.1,0.1-0.3,0.1-0.4,0.1s-0.3,0-0.4-0.1C68.2,20,68.1,19.9,68.1,19.7z M69.3,14.6h1.8
		c1.3,0,1.9-0.6,1.9-1.8c0-1.2-0.6-1.8-1.9-1.8h-1.8V14.6z"/>
	<path fill="#535353" d="M74.9,19.7c0,0,0-0.1,0-0.1l2.9-9.3c0.1-0.3,0.3-0.4,0.7-0.4c0.4,0,0.6,0.1,0.7,0.4l2.9,9.3c0,0,0,0,0,0.1
		s0,0,0,0c0,0.1-0.1,0.2-0.2,0.3c-0.2,0.1-0.3,0.1-0.5,0.1c-0.2,0-0.4-0.1-0.4-0.3l-0.6-2.1h-3.7l-0.6,2.1c-0.1,0.2-0.2,0.3-0.4,0.3
		c-0.2,0-0.3,0-0.5-0.1C75,19.9,74.9,19.8,74.9,19.7z M77,16.8h3.1l-1.6-5.3L77,16.8z"/>
	<path fill="#535353" d="M83.3,17.2V13c0-1,0.3-1.8,0.8-2.3c0.6-0.5,1.3-0.7,2.2-0.7c0.9,0,1.6,0.2,2.2,0.7s0.8,1,0.8,1.7
		c0,0.3,0,0.4-0.1,0.5S89,13,88.7,13c-0.4,0-0.6-0.1-0.6-0.4c-0.1-1.1-0.7-1.6-1.8-1.6c-1.2,0-1.9,0.7-1.9,2v4.2c0,1.3,0.6,2,1.9,2
		c0.4,0,0.7-0.1,0.9-0.2c0.2-0.1,0.4-0.3,0.5-0.4s0.2-0.4,0.2-0.5c0-0.1,0.1-0.3,0.1-0.6c0-0.3,0.2-0.4,0.6-0.4c0.2,0,0.4,0,0.4,0.1
		c0.1,0.1,0.1,0.3,0.1,0.5c0,0.7-0.3,1.3-0.8,1.8c-0.6,0.5-1.3,0.7-2.2,0.7c-0.9,0-1.6-0.2-2.2-0.7C83.6,19,83.3,18.2,83.3,17.2z"/>
	<path fill="#535353" d="M90,10.4c0-0.1,0-0.3,0.1-0.4s0.2-0.2,0.3-0.2h5.7c0.1,0,0.2,0.1,0.3,0.2s0.1,0.2,0.1,0.4
		c0,0.1,0,0.3-0.1,0.4c-0.1,0.1-0.2,0.2-0.3,0.2h-2.3v8.7c0,0.1-0.1,0.2-0.2,0.3s-0.3,0.1-0.4,0.1s-0.3,0-0.4-0.1s-0.2-0.2-0.2-0.3
		V11h-2.3c-0.1,0-0.2-0.1-0.3-0.2S90,10.6,90,10.4z"/>
</g>
</svg>
